{
    "name": "beto-combat",
    "title": "BeTo - Combat",
    "description": "This module adds improvements to the combat, including auto removing ammunition, auto disadvantage on long range, blocking attack rolls when not possible, etc.",
    "author": "Jeroen Berkvens",
    "version": "1.0.1",
    "minimumCoreVersion": "0.8.8",
    "scripts": [
        "scripts/functions.js",
        "scripts/before-attack-roll.js"
    ],
    "dependencies": [
        {
            "name": "beto-library",
            "manifest": "https://gitlab.com/berkvenstoonen/BeTo-Library/raw/0.0.2/module.json"
        },
        {
            "name": "midi-qol",
            "type": "module"
        }
    ]
}
